{
  "HTML": "src/index.html",
  "STYLES": ["src/style/**/*.scss", "src/style/**/*.css"],
  "SASS": "src/style/**/*.scss",
  "DASHER": "src/dasher/www/**/*",

  "SERVER_HTTPS": false,
  "SERVER_PORT": 8000,
  "SERVER_HOSTNAME": "localhost",
  "SERVER_DEFAULT": "index.html",
  "SERVER_LOGLEVEL": "info",

  "PROD_SERVER_PORT": 9090,
  "PROD_SERVER_HOSTNAME": "0.0.0.0",
  "STAGE_SERVER_PORT": 9090,
  "STAGE_SERVER_HOSTNAME": "0.0.0.0",
  "DEV2_SERVER_PORT": 9090,
  "DEV2_SERVER_HOSTNAME": "0.0.0.0",
  "LOCALHOST_SERVER_PORT": 8092,
  "LOCALHOST_SERVER_HOSTNAME": "0.0.0.0",

  "MINIFIED_OUT": "main.min.js",
  "OUT": "main.js",

  "DEST_DEV": "build",
  "DEST_RELEASE": "release",
  "DEST_MENU_DASH": "menudashboard",
  "DEST_JS": "js/",
  "DEST_CSS": "style/",
  "DEST_DASHER": "dasher/",
  "DEST_ANALYTICS": "analytics/",

  "ENTRY_POINT": "./src/js/App.js"
}
